[gd_resource type="TileSet" load_steps=16 format=3 uid="uid://104jtph21akx"]

[ext_resource type="Texture2D" uid="uid://dh6cmque5guiw" path="res://Sprites/Paredes/atlas-1.png" id="1_nshsu"]
[ext_resource type="Texture2D" uid="uid://ck2hxsb7ndiji" path="res://Sprites/Paredes/atlas-2.png" id="2_s3fsj"]

[sub_resource type="TileSetAtlasSource" id="TileSetAtlasSource_d00dw"]
texture = ExtResource("1_nshsu")
texture_region_size = Vector2i(520, 520)
use_texture_padding = false
1:3/0 = 0
1:3/0/physics_layer_0/linear_velocity = Vector2(0, 0)
1:3/0/physics_layer_0/angular_velocity = 0.0
1:3/0/physics_layer_0/polygon_0/points = PackedVector2Array(-128, 256, 128, 256, 128, 128, 128, -128, 128, -256, -128, -256, -128, -256, -128, -128, -256, -128, -256, 128, -128, 128)
0:3/0 = 0
0:3/0/physics_layer_0/linear_velocity = Vector2(0, 0)
0:3/0/physics_layer_0/angular_velocity = 0.0
0:3/0/physics_layer_0/polygon_0/points = PackedVector2Array(128, 256, -128, 256, -128, 128, -128, -128, -128, -256, 128, -256, 128, -256, 128, -128, 256, -128, 256, 128, 128, 128)
0:2/0 = 0
0:2/0/physics_layer_0/linear_velocity = Vector2(0, 0)
0:2/0/physics_layer_0/angular_velocity = 0.0
0:2/0/physics_layer_0/polygon_0/points = PackedVector2Array(128, 128, 128, 256, -128, 256, -128, 128, -256, 128, -256, -128, -128, -128, -128, -256, 128, -256, 128, -128, 256, -128, 256, 128)
1:2/0 = 0
1:2/0/physics_layer_0/linear_velocity = Vector2(0, 0)
1:2/0/physics_layer_0/angular_velocity = 0.0
1:2/0/physics_layer_0/polygon_0/points = PackedVector2Array(128, 128, 128, 256, -128, 256, -128, 128, -256, 128, -256, -128, -128, -128, 128, -128, 256, -128, 256, 128)
2:2/0 = 0
2:2/0/physics_layer_0/linear_velocity = Vector2(0, 0)
2:2/0/physics_layer_0/angular_velocity = 0.0
2:2/0/physics_layer_0/polygon_0/points = PackedVector2Array(128, 128, -128, 128, -256, 128, -256, -128, -128, -128, -128, -256, 128, -256, 128, -128, 256, -128, 256, 128)
2:1/0 = 0
2:1/0/physics_layer_0/linear_velocity = Vector2(0, 0)
2:1/0/physics_layer_0/angular_velocity = 0.0
2:1/0/physics_layer_0/polygon_0/points = PackedVector2Array(128, 128, 128, 256, -128, 256, -128, -128, 256, -128, 256, 128)
2:0/0 = 0
2:0/0/physics_layer_0/linear_velocity = Vector2(0, 0)
2:0/0/physics_layer_0/angular_velocity = 0.0
2:0/0/physics_layer_0/polygon_0/points = PackedVector2Array(128, -256, 127.279, -128, 256, -128, 256, 128, -128, 128, -128, -256)
1:0/0 = 0
1:0/0/physics_layer_0/linear_velocity = Vector2(0, 0)
1:0/0/physics_layer_0/angular_velocity = 0.0
1:0/0/physics_layer_0/polygon_0/points = PackedVector2Array(256, 128, -256, 128, -256, -128, 256, -128)
0:0/0 = 0
0:0/0/physics_layer_0/linear_velocity = Vector2(0, 0)
0:0/0/physics_layer_0/angular_velocity = 0.0
0:0/0/physics_layer_0/polygon_0/points = PackedVector2Array(128, -256, 128, 256, -128, 256, -128, -256)
0:1/0 = 0
0:1/0/physics_layer_0/linear_velocity = Vector2(0, 0)
0:1/0/physics_layer_0/angular_velocity = 0.0
0:1/0/physics_layer_0/polygon_0/points = PackedVector2Array(128, -256, 128, 128, -256, 128, -256, -128, -128, -128, -128, -256)
1:1/0 = 0
1:1/0/physics_layer_0/linear_velocity = Vector2(0, 0)
1:1/0/physics_layer_0/angular_velocity = 0.0
1:1/0/physics_layer_0/polygon_0/points = PackedVector2Array(-128, 256, -128, 128, -256, 128, -256, -128, 128, -128, 128, 256)

[sub_resource type="NavigationPolygon" id="NavigationPolygon_s7vkp"]
vertices = PackedVector2Array(15, -15, 256, -15, 256, 15, 15, 15, 15, 256, -15, 256, -15, 15, -15, -15, -256, 15, -256, -15, 15, -256, -15, -256)
polygons = Array[PackedInt32Array]([PackedInt32Array(0, 1, 2, 3), PackedInt32Array(3, 4, 5, 6), PackedInt32Array(0, 3, 6, 7), PackedInt32Array(6, 8, 9, 7), PackedInt32Array(10, 0, 7, 11)])
outlines = Array[PackedVector2Array]([PackedVector2Array(-15.0588, -256, 15.0588, -256, 15.0588, -15.0588, 256, -15.0588, 256, 15.0588, 15.0588, 15.0588, 15.0588, 256, -15.0588, 256, -15.0588, 15.0588, -256, 15.0588, -256, -15.0588, -15.0588, -15.0588)])
source_geometry_group_name = &"navigation_polygon_source_group"
agent_radius = 0.0

[sub_resource type="NavigationPolygon" id="NavigationPolygon_j6ua3"]
vertices = PackedVector2Array(256, 15, 15, 15, -15, 15, -256, 15, -256, -15, 256, -15)
polygons = Array[PackedInt32Array]([PackedInt32Array(0, 1, 2, 3, 4, 5)])
outlines = Array[PackedVector2Array]([PackedVector2Array(-256, 15.0588, -256, -15.0588, 256, -15.0588, 256, 15.0588, 15.0588, 15.0588, -15.0588, 15.0588)])
source_geometry_group_name = &"navigation_polygon_source_group"
agent_radius = 0.0

[sub_resource type="NavigationPolygon" id="NavigationPolygon_08yix"]
vertices = PackedVector2Array(15, -15, 15, 15, 15, 256, -15, 256, -15, -256, 15, -256)
polygons = Array[PackedInt32Array]([PackedInt32Array(0, 1, 2, 3, 4, 5)])
outlines = Array[PackedVector2Array]([PackedVector2Array(15.0588, 256, -15.0588, 256, -15.0588, -256, 15.0588, -256, 15.0588, -15.0588, 15.0588, 15.0588)])
source_geometry_group_name = &"navigation_polygon_source_group"
agent_radius = 0.0

[sub_resource type="NavigationPolygon" id="NavigationPolygon_8u55w"]
vertices = PackedVector2Array(15, -15, 256, -15, 256, 15, 15, 15, 15, 256, -15, 256, -15, 15, -15, -15, 15, -256, -15, -256)
polygons = Array[PackedInt32Array]([PackedInt32Array(0, 1, 2, 3), PackedInt32Array(3, 4, 5, 6), PackedInt32Array(0, 3, 6, 7), PackedInt32Array(8, 0, 7, 9)])
outlines = Array[PackedVector2Array]([PackedVector2Array(-15.0588, -256, 15.0588, -256, 15.0588, -15.0588, 256, -15.0588, 256, 15.0588, 15.0588, 15.0588, 15.0588, 256, -15.0588, 256, -15.0588, 15.0588, -15.0588, -15.0588)])
source_geometry_group_name = &"navigation_polygon_source_group"
agent_radius = 0.0

[sub_resource type="NavigationPolygon" id="NavigationPolygon_bbngf"]
vertices = PackedVector2Array(15, 15, 15, 256, -15, 256, -15, 15, 15, -15, -15, -15, -256, 15, -256, -15, 15, -256, -15, -256)
polygons = Array[PackedInt32Array]([PackedInt32Array(0, 1, 2, 3), PackedInt32Array(4, 0, 3, 5), PackedInt32Array(3, 6, 7, 5), PackedInt32Array(8, 4, 5, 9)])
outlines = Array[PackedVector2Array]([PackedVector2Array(15.0588, -256, -15.0588, -256, -15.0588, -15.0588, -256, -15.0588, -256, 15.0588, -15.0588, 15.0588, -15.0588, 256, 15.0588, 256, 15.0588, 15.0588, 15.0588, -15.0588)])
source_geometry_group_name = &"navigation_polygon_source_group"
agent_radius = 0.0

[sub_resource type="NavigationPolygon" id="NavigationPolygon_ac4y2"]
vertices = PackedVector2Array(256, -15, 256, 15, 15, 15, 15, -15, 15, 256, -15, 256, -15, 15, -15, -15, -256, 15, -256, -15)
polygons = Array[PackedInt32Array]([PackedInt32Array(0, 1, 2, 3), PackedInt32Array(2, 4, 5, 6), PackedInt32Array(3, 2, 6, 7), PackedInt32Array(7, 6, 8, 9)])
outlines = Array[PackedVector2Array]([PackedVector2Array(256, -15.0588, 256, 15.0588, 15.0588, 15.0588, 15.0588, 256, -15.0588, 256, -15.0588, 15.0588, -256, 15.0588, -256, -15.0588, -15.0588, -15.0588, 15.0588, -15.0588)])
source_geometry_group_name = &"navigation_polygon_source_group"
agent_radius = 0.0

[sub_resource type="NavigationPolygon" id="NavigationPolygon_bm6yr"]
vertices = PackedVector2Array(15, -15, 256, -15, 256, 15, 15, 15, -15, 15, -15, -15, -256, 15, -256, -15, 15, -256, -15, -256)
polygons = Array[PackedInt32Array]([PackedInt32Array(0, 1, 2, 3), PackedInt32Array(0, 3, 4, 5), PackedInt32Array(4, 6, 7, 5), PackedInt32Array(8, 0, 5, 9)])
outlines = Array[PackedVector2Array]([PackedVector2Array(256, 15.0588, 256, -15.0588, 15.0588, -15.0588, 15.0588, -256, -15.0588, -256, -15.0588, -15.0588, -256, -15.0588, -256, 15.0588, -15.0588, 15.0588, 15.0588, 15.0588)])
source_geometry_group_name = &"navigation_polygon_source_group"
agent_radius = 0.0

[sub_resource type="NavigationPolygon" id="NavigationPolygon_we5my"]
vertices = PackedVector2Array(15, -15, 15, 15, -15, 15, -15, -15, -256, 15, -256, -15, 15, -256, -15, -256)
polygons = Array[PackedInt32Array]([PackedInt32Array(0, 1, 2, 3), PackedInt32Array(2, 4, 5, 3), PackedInt32Array(6, 0, 3, 7)])
outlines = Array[PackedVector2Array]([PackedVector2Array(15.0588, -15.0588, 15.0588, -256, -15.0588, -256, -15.0588, -15.0588, -256, -15.0588, -256, 15.0588, -15.0588, 15.0588, 15.0588, 15.0588)])
source_geometry_group_name = &"navigation_polygon_source_group"
agent_radius = 0.0

[sub_resource type="NavigationPolygon" id="NavigationPolygon_51uhh"]
vertices = PackedVector2Array(15, 15, 15, 256, -15, 256, -15, 15, 15, -15, -15, -15, -256, 15, -256, -15)
polygons = Array[PackedInt32Array]([PackedInt32Array(0, 1, 2, 3), PackedInt32Array(4, 0, 3, 5), PackedInt32Array(5, 3, 6, 7)])
outlines = Array[PackedVector2Array]([PackedVector2Array(15.0588, 15.0588, 15.0588, 256, -15.0588, 256, -15.0588, 15.0588, -256, 15.0588, -256, -15.0588, -15.0588, -15.0588, 15.0588, -15.0588)])
source_geometry_group_name = &"navigation_polygon_source_group"
agent_radius = 0.0

[sub_resource type="NavigationPolygon" id="NavigationPolygon_dxvm3"]
vertices = PackedVector2Array(256, -15, 256, 15, 15, 15, 15, -15, 15, 256, -15, 256, -15, 15, -15, -15)
polygons = Array[PackedInt32Array]([PackedInt32Array(0, 1, 2, 3), PackedInt32Array(2, 4, 5, 6), PackedInt32Array(3, 2, 6, 7)])
outlines = Array[PackedVector2Array]([PackedVector2Array(-15.0588, 15.0588, -15.0588, 256, 15.0588, 256, 15.0588, 15.0588, 256, 15.0588, 256, -15.0588, 15.0588, -15.0588, -15.0588, -15.0588)])
source_geometry_group_name = &"navigation_polygon_source_group"
agent_radius = 0.0

[sub_resource type="NavigationPolygon" id="NavigationPolygon_eua0m"]
vertices = PackedVector2Array(15, -15, 256, -15, 256, 15, 15, 15, -15, 15, -15, -15, 15, -256, -15, -256)
polygons = Array[PackedInt32Array]([PackedInt32Array(0, 1, 2, 3), PackedInt32Array(0, 3, 4, 5), PackedInt32Array(6, 0, 5, 7)])
outlines = Array[PackedVector2Array]([PackedVector2Array(-15.0588, -15.0588, -15.0588, -256, 15.0588, -256, 15.0588, -15.0588, 256, -15.0588, 256, 15.0588, 15.0588, 15.0588, -15.0588, 15.0588)])
source_geometry_group_name = &"navigation_polygon_source_group"
agent_radius = 0.0

[sub_resource type="TileSetAtlasSource" id="TileSetAtlasSource_ecgqb"]
texture = ExtResource("2_s3fsj")
texture_region_size = Vector2i(520, 520)
use_texture_padding = false
0:0/0 = 0
0:0/0/physics_layer_0/linear_velocity = Vector2(0, 0)
0:0/0/physics_layer_0/angular_velocity = 0.0
0:0/0/physics_layer_0/polygon_0/points = PackedVector2Array(128, 128, 128, -128, -128, -128, -256, -128, -256, 128, -128, 128)
1:0/0 = 0
1:0/0/physics_layer_0/linear_velocity = Vector2(0, 0)
1:0/0/physics_layer_0/angular_velocity = 0.0
1:0/0/physics_layer_0/polygon_0/points = PackedVector2Array(-128, 128, -128, -128, 128, -128, 256, -128, 256, 128, 128, 128)
2:0/0 = 0
2:0/0/physics_layer_0/linear_velocity = Vector2(0, 0)
2:0/0/physics_layer_0/angular_velocity = 0.0
2:0/0/physics_layer_0/polygon_0/points = PackedVector2Array(-128, -128, 128, -128, 128, 128, 128, 256, -128, 256, -128, 128)
0:1/0 = 0
0:1/0/physics_layer_0/linear_velocity = Vector2(0, 0)
0:1/0/physics_layer_0/angular_velocity = 0.0
0:1/0/physics_layer_0/polygon_0/points = PackedVector2Array(-128, 128, 128, 128, 128, -128, 128, -256, -128, -256, -128, -128)
2:1/next_alternative_id = 12
2:1/0 = 0
2:1/0/physics_layer_0/linear_velocity = Vector2(0, 0)
2:1/0/physics_layer_0/angular_velocity = 0.0
2:1/1 = 1
2:1/1/physics_layer_0/linear_velocity = Vector2(0, 0)
2:1/1/physics_layer_0/angular_velocity = 0.0
2:1/1/navigation_layer_0/polygon = SubResource("NavigationPolygon_s7vkp")
2:1/2 = 2
2:1/2/physics_layer_0/linear_velocity = Vector2(0, 0)
2:1/2/physics_layer_0/angular_velocity = 0.0
2:1/2/navigation_layer_0/polygon = SubResource("NavigationPolygon_8u55w")
2:1/3 = 3
2:1/3/physics_layer_0/linear_velocity = Vector2(0, 0)
2:1/3/physics_layer_0/angular_velocity = 0.0
2:1/3/navigation_layer_0/polygon = SubResource("NavigationPolygon_bbngf")
2:1/4 = 4
2:1/4/physics_layer_0/linear_velocity = Vector2(0, 0)
2:1/4/physics_layer_0/angular_velocity = 0.0
2:1/4/navigation_layer_0/polygon = SubResource("NavigationPolygon_ac4y2")
2:1/5 = 5
2:1/5/physics_layer_0/linear_velocity = Vector2(0, 0)
2:1/5/physics_layer_0/angular_velocity = 0.0
2:1/5/navigation_layer_0/polygon = SubResource("NavigationPolygon_bm6yr")
2:1/6 = 6
2:1/6/physics_layer_0/linear_velocity = Vector2(0, 0)
2:1/6/physics_layer_0/angular_velocity = 0.0
2:1/6/navigation_layer_0/polygon = SubResource("NavigationPolygon_we5my")
2:1/7 = 7
2:1/7/physics_layer_0/linear_velocity = Vector2(0, 0)
2:1/7/physics_layer_0/angular_velocity = 0.0
2:1/7/navigation_layer_0/polygon = SubResource("NavigationPolygon_51uhh")
2:1/8 = 8
2:1/8/physics_layer_0/linear_velocity = Vector2(0, 0)
2:1/8/physics_layer_0/angular_velocity = 0.0
2:1/8/navigation_layer_0/polygon = SubResource("NavigationPolygon_dxvm3")
2:1/9 = 9
2:1/9/physics_layer_0/linear_velocity = Vector2(0, 0)
2:1/9/physics_layer_0/angular_velocity = 0.0
2:1/9/navigation_layer_0/polygon = SubResource("NavigationPolygon_eua0m")
2:1/10 = 10
2:1/10/physics_layer_0/linear_velocity = Vector2(0, 0)
2:1/10/physics_layer_0/angular_velocity = 0.0
2:1/10/navigation_layer_0/polygon = SubResource("NavigationPolygon_j6ua3")
2:1/11 = 11
2:1/11/physics_layer_0/linear_velocity = Vector2(0, 0)
2:1/11/physics_layer_0/angular_velocity = 0.0
2:1/11/navigation_layer_0/polygon = SubResource("NavigationPolygon_08yix")

[resource]
tile_size = Vector2i(512, 512)
physics_layer_0/collision_layer = 2
navigation_layer_0/layers = 1
sources/1 = SubResource("TileSetAtlasSource_d00dw")
sources/2 = SubResource("TileSetAtlasSource_ecgqb")
